<?xml version="1.0" encoding="UTF-8"?>
<svg width="1074px" height="68px" viewBox="0 0 1074 68" version="1.1" xmlns="http://www.w3.org/2000/svg" xmlns:xlink="http://www.w3.org/1999/xlink">
    <!-- Generator: Sketch 48.2 (47327) - http://www.bohemiancoding.com/sketch -->
    <title>subtitle_en</title>
    <desc>Created with Sketch.</desc>
    <defs></defs>
    <g id="Page-1" stroke="none" stroke-width="1" fill="none" fill-rule="evenodd">
        <g id="subtitle_en" fill="#000000" fill-rule="nonzero">
            <path d="M54.8032596,4.10762018 L39.9134496,42.83047 C39.4294592,44.1816996 38.9009388,45.6059292 38.4899484,46.8994892 C38.2110879,45.6059292 38.0935579,44.314559 37.8876973,42.8311984 L32.2484473,4.10834866 L27.9589677,4.10834866 L12.6114473,42.8311984 C12.0829269,44.2262285 11.5989366,45.5774581 11.1879462,46.8994881 C10.9090857,45.5774581 10.7477552,44.182428 10.5864247,42.8311984 L5.41802448,4.10834866 L0.68616394,4.10834866 L7.85330341,52.0007285 L12.9187734,52.0007285 L27.4479633,15.7241083 C28.166283,13.8757478 28.9868034,11.2090579 29.2211339,10.401678 C29.3386639,11.2090579 29.5445245,13.8757478 29.823385,15.7241083 L35.0224451,52.0007285 L40.1923056,52.0007285 L59.3737852,4.10834866 L54.8032596,4.10762018 Z M110.091111,6.28228969 C110.091111,4.56606009 108.815071,3.23234978 107.025841,3.23234978 C105.075281,3.23234978 103.184582,4.88871996 103.184582,6.95608049 C103.184582,8.70078004 104.489091,9.98996031 106.160791,9.98996031 C108.257351,9.98996031 110.090381,8.37812018 110.090381,6.28156009 L110.091111,6.28228969 Z M98.600911,51.9992704 L103.053911,51.9992704 L107.345581,17.6695601 L102.892581,17.8308906 L98.600911,51.9992704 Z M132.072861,17.4512897 C121.702481,17.4512897 113.741101,25.8484796 113.741101,37.4554796 C113.741101,46.3921395 119.147481,52.3803294 128.203861,52.3803294 C133.556221,52.3803294 138.278591,50.5662789 141.623452,46.9848991 L139.361181,44.1634496 C137.440552,46.1439399 134.217602,48.6186395 128.763042,48.6186395 C122.013461,48.6186395 118.312362,43.9970096 118.312362,37.0875601 C118.312362,27.7713004 124.053811,21.2115204 131.633401,21.2115204 C136.647041,21.2115204 139.516671,24.3154807 139.516671,28.6429206 C139.516671,29.9525408 139.211531,31.1628809 139.078671,31.5169314 L143.22215,31.1942715 C143.22215,31.1942715 143.77768,29.676602 143.77768,27.7479421 C143.77768,21.8480816 139.40863,17.4505612 132.07359,17.4505612 L132.072861,17.4512897 Z M170.12337,17.4512897 C164.07678,17.4512897 159.70335,21.0706298 157.2834,25.3301803 L157.24763,25.3301803 L160.38225,0.462 L156.04678,0.462 L149.58044,52 L154.03344,52 L156.47967,32.5754303 C157.498019,27.3318401 161.951019,21.21225 168.88748,21.21225 C174.45373,21.21225 177.24817,25.2038895 176.50503,31.0760096 L173.892361,52 L178.345361,52 L180.95803,31.0760096 C181.98003,23.0000193 177.89203,17.4520193 170.12337,17.4520193 L170.12337,17.4512897 Z M81.12337,17.4512897 C75.07678,17.4512897 70.70335,21.0706298 68.2834,25.3301803 L68.24763,25.3301803 L71.38225,0.462 L67.04678,0.462 L60.58044,52 L65.03344,52 L67.47967,32.5754303 C68.498019,27.3318401 72.951019,21.21225 79.88748,21.21225 C85.45373,21.21225 88.24817,25.2038895 87.50503,31.0760096 L84.892361,52 L89.345361,52 L91.95803,31.0760096 C92.98003,23.0000193 88.89203,17.4520193 81.12337,17.4520193 L81.12337,17.4512897 Z M248.515861,17.5396202 C242.397731,17.5396202 238.048391,21.5597307 235.851821,26.3273605 C234.990421,20.9552908 231.199531,17.5403509 225.206961,17.5403509 C219.039922,17.5403509 214.657732,21.5962307 212.580151,26.3916009 L212.483791,26.3916009 C212.745131,24.1964904 213.0218,20.52897 212.93128,17.6710204 L209.77184,17.8323509 L205.480171,52.0007307 L209.888641,52.0007307 L212.269171,32.9608702 C213.13349,27.7588906 217.382821,21.3020408 223.941141,21.3020408 C229.478921,21.3020408 232.17408,25.2936803 231.430941,31.1658004 L228.818272,52.0014603 L233.271272,52.0014603 L235.649612,33.0331406 C236.459912,27.9326309 240.706322,21.3027704 247.323772,21.3027704 C252.861552,21.3027704 255.556711,25.2944099 254.813572,31.16653 L252.200902,52.0021899 L256.653902,52.0021899 L259.266572,31.16653 C260.288572,23.0905397 256.227582,17.5425397 248.516591,17.5425397 L248.515861,17.5396202 Z M294.8526,48.3981803 L294.852599,48.3989132 C295.246798,48.3989132 295.728599,48.3259132 295.992129,48.2529132 L295.815469,51.9854036 C295.729329,52.0138735 294.466429,52.3365334 293.073589,52.3365334 C290.130228,52.3365334 288.212518,50.8874829 288.665849,47.2469733 L288.888499,45.475263 L288.823529,45.475263 C287.281039,48.0623832 283.376268,52.3810634 275.713458,52.3810634 C269.402608,52.3810634 266.057748,49.2092137 266.057748,44.4466933 C266.057748,35.894013 274.105998,33.0543134 288.211787,32.8813038 L290.233158,32.8287437 L290.575528,30.1445334 C291.274868,24.7242834 288.435898,21.2129829 282.588598,21.2129829 C276.933287,21.2129829 273.061368,24.195763 273.061368,28.9130226 C273.061368,29.5101621 273.134368,29.9613016 273.178898,30.1824915 L268.990888,30.9168713 C268.990888,30.9168713 268.873358,30.0985408 268.873358,29.0612103 C268.873358,22.3006803 274.757159,17.4520204 283.131719,17.4520204 C291.534749,17.4520204 295.932269,22.3736803 294.938739,30.1007307 L292.98526,45.6555708 C292.73779,47.6397103 293.348799,48.3981803 294.8526,48.3981803 Z M277.123089,48.6201031 L277.123819,48.6201031 C284.772029,48.6201031 288.737389,43.1516729 289.23525,40.6550731 L289.82655,36.0166536 L287.84387,36.0677533 C276.40988,36.240763 270.583019,38.3176128 270.583019,43.8451729 C270.583019,46.7724733 272.753309,48.6201031 277.123089,48.6201031 Z M334.9931,17.8316202 L329.794769,17.8316202 L315.683869,31.3497596 L310.717679,31.3497596 L314.593249,0.461269287 L310.184779,0.461269287 L303.718439,51.9992693 L308.126909,51.9992693 L310.262159,34.9778594 L314.507108,34.9778594 L326.504659,51.9992693 L332.087698,51.9992693 L318.668838,33.273309 L334.9931,17.8316202 Z M354.05485,17.4512897 L354.053391,17.4512908 C361.861471,17.4512908 366.343671,22.9343208 366.343671,30.7606513 C366.343671,33.6098412 365.62681,35.832691 365.62681,35.832691 L340.64256,35.832691 C340.62212,36.2166706 340.6119,36.6057608 340.6119,36.9999603 C340.6119,43.9977404 344.490391,48.6193702 351.315161,48.6193702 C355.991541,48.6193702 359.33202,46.5403305 361.44318,44.2087103 L363.79378,46.7206406 C360.44892,50.5801502 355.66888,52.3803305 350.50632,52.3803305 C341.44848,52.3803305 336.08663,46.3921406 336.08663,37.4401502 C336.08663,25.6776599 343.93997,17.4512897 354.05485,17.4512897 Z M353.62634,21.2122511 L353.625612,21.21225 C347.589241,21.21225 342.596042,25.7170805 341.082022,32.557911 L361.859281,32.557911 C361.935201,32.0126009 361.97827,31.3745805 361.97827,30.568661 C361.97827,24.7410708 358.772111,21.2122511 353.62634,21.2122511 Z M393.576671,29.3341447 C393.753346,28.9357206 394.029639,27.9165949 394.029639,26.8843475 C394.029639,23.2847177 391.100149,21.2137081 386.798989,21.2137081 C381.728409,21.2137081 378.539769,23.835868 378.539769,27.5924484 C378.539769,35.5676984 396.94526,30.807368 396.94526,41.8938776 C396.94526,48.4390579 391.24323,52.3810579 382.88838,52.3810579 C374.68391,52.3810579 371.13173,48.4295675 370.11703,47.341868 L373.15748,44.3722285 C373.922519,45.2701287 377.344029,48.6200987 383.388429,48.6200987 C389.11601,48.6200987 392.41926,46.0869989 392.41926,42.3917392 C392.41926,34.8318594 374.04297,38.7986792 374.04297,28.0326395 C374.04297,21.984589 379.53987,17.4527489 387.34357,17.4527489 C393.93693,17.4527489 398.289921,20.816589 398.289921,25.8995794 C398.289921,27.5515697 397.71906,29.0115697 397.71906,29.0115697 L393.576671,29.3341447 Z M393.575581,29.3342296 Z M393.575581,29.3342296 L393.576671,29.3341447 C393.57655,29.3344158 393.57643,29.3346865 393.57631,29.334957 L393.575581,29.3342297 Z M447.79631,17.8316202 L433.91098,45.0306899 C433.48247,46.0169195 433.2058,46.5009099 432.86781,47.5601395 L432.76634,47.5601395 C432.72181,46.6469099 432.60428,46.1994195 432.31009,45.0314195 L425.31815,17.8323498 L420.40963,17.8323498 L429.926639,52.8825697 L427.3585,58.0057092 C425.77221,61.2096792 424.102701,63.3785096 420.80237,63.3785096 C418.78684,63.3785096 417.47065,62.5601792 417.47065,62.5601792 L416.22162,66.305809 C416.22162,66.305809 417.832,67.2277993 420.53884,67.2277993 C425.92259,67.2277993 428.92216,63.6274388 431.177859,59.1101984 L452.350779,17.831618 L447.79631,17.8316202 Z M472.43599,17.4512897 L472.435261,17.4512886 C481.2303,17.4512886 486.63668,23.645339 486.63668,32.6265289 C486.63668,44.2335289 478.792831,52.3803294 468.05599,52.3803294 C459.260951,52.3803294 453.854571,46.3636695 453.854571,37.3824796 C453.854571,25.81928 461.698421,17.4512897 472.43599,17.4512897 Z M468.510781,48.6193691 L468.511511,48.6200987 C476.383101,48.6200987 482.139881,42.1179881 482.139881,32.9937177 C482.139881,26.0112682 478.321251,21.2129785 471.980471,21.2129785 C464.152681,21.2129785 458.395901,27.9362789 458.395901,37.0160193 C458.395901,43.9539388 462.214531,48.6193691 468.510781,48.6193691 Z M520.46122,17.8316202 L518.04273,37.1751599 C517.052119,42.2501202 512.688179,48.6193702 506.136429,48.6193702 C500.598649,48.6193702 497.990359,44.7430697 498.7627,38.8709496 L501.375369,17.8316191 L496.922369,17.8316191 L494.3097,38.8709496 C493.2877,46.9469399 497.161079,52.3795998 504.87207,52.3795998 C510.947859,52.3795998 515.34976,48.5215493 517.66167,43.8823991 L517.70547,43.8823991 C517.51713,45.6351287 517.24046,49.3026491 517.330981,52.1613294 L520.578751,51.9999989 L524.870421,17.8316191 L520.46122,17.8316202 Z M548.872081,17.4512897 C543.8599,17.4512897 540.34641,21.6611996 538.52506,26.3908691 L538.37979,26.3908691 C538.64113,24.1957585 538.917799,20.5282381 538.827279,17.6702886 L535.667839,17.8316191 L531.37617,51.9999989 L535.784639,51.9999989 L538.15422,33.0506588 C539.0492,27.3201588 543.32992,21.7429592 548.063239,21.7429592 C549.334899,21.7429592 550.443039,22.0794892 550.927029,22.3736792 L552.558579,17.9491491 C551.676739,17.6994892 550.302879,17.4512897 548.872078,17.4512897 L548.872081,17.4512897 Z M590.168889,17.4512897 L590.170349,17.4505601 C598.275539,17.4505601 603.358529,23.39422 603.358529,32.3754099 C603.358529,44.2035998 595.822009,52.3795998 585.569159,52.3795998 C579.880999,52.3795998 576.117849,49.2603101 574.583388,45.1204796 L571.872898,66.892 L567.463698,66.892 L573.608838,17.8316202 L576.768278,17.6702897 C576.814268,20.3515794 576.655129,24.284089 576.320789,26.3908691 L576.421529,26.3908691 C578.588899,21.5458594 583.20542,17.4512897 590.168889,17.4512897 Z M585.715159,48.6186406 L585.715159,48.6193713 C593.367749,48.6193713 598.817198,42.0887908 598.817198,32.8323906 C598.817198,25.8346105 595.144569,21.2129807 588.962929,21.2129807 C581.678989,21.2129807 577.01867,27.6639904 576.082809,33.0769399 L575.604659,36.9196599 C575.335289,42.2377103 578.072789,48.6186406 585.715159,48.6186406 Z M627.282081,17.4512897 C622.2699,17.4512897 618.75641,21.6611996 616.93506,26.3908691 L616.78979,26.3908691 C617.05113,24.1957585 617.327799,20.5282381 617.237279,17.6702886 L614.077839,17.8316191 L609.78617,51.9999989 L614.194639,51.9999989 L616.56422,33.0506588 C617.4592,27.3201588 621.73992,21.7429592 626.473239,21.7429592 C627.744899,21.7429592 628.853039,22.0794892 629.337029,22.3736792 L630.968579,17.9491491 C630.086739,17.6994892 628.712879,17.4512897 627.282078,17.4512897 L627.282081,17.4512897 Z M649.76899,17.4512897 L649.768261,17.4512886 C658.5633,17.4512886 663.96968,23.645339 663.96968,32.6265289 C663.96968,44.2335289 656.125831,52.3803294 645.38899,52.3803294 C636.593951,52.3803294 631.187571,46.3636695 631.187571,37.3824796 C631.187571,25.81928 639.031421,17.4512897 649.76899,17.4512897 Z M645.843781,48.6193691 L645.844511,48.6200987 C653.716101,48.6200987 659.472881,42.1179881 659.472881,32.9937177 C659.472881,26.0112682 655.654251,21.2129785 649.313471,21.2129785 C641.485681,21.2129785 635.728901,27.9362789 635.728901,37.0160193 C635.728901,43.9539388 639.547531,48.6193691 645.843781,48.6193691 Z M702.04793,0.635009644 L706.457862,0.63500853 L699.991522,51.9715289 L696.699221,52.1328594 C696.785361,49.4070397 697.0175,45.5183294 697.29417,43.4115493 L697.19635,43.4115493 C694.85159,48.3718991 690.09126,52.3518594 683.43001,52.3518594 C675.32482,52.3518594 670.241829,46.4081996 670.241829,37.4270096 C670.241829,25.5988197 677.85135,17.4228197 688.0312,17.4228197 C693.83835,17.4228197 697.53215,20.4450193 699.05493,24.4884892 L702.04793,0.635009644 Z M684.638162,48.590898 L684.63743,48.5908958 C691.87246,48.5908958 696.486791,42.1143357 697.487621,36.9853561 L698.071621,32.3308765 C698.247552,27.236207 695.200531,21.1845074 687.885931,21.1845074 C680.350142,21.1845074 674.783892,27.7150879 674.783892,36.9714881 C674.783892,43.9692682 678.501052,48.590898 684.638162,48.590898 Z M738.26322,17.8316202 L735.84473,37.1751599 C734.854119,42.2501202 730.490179,48.6193702 723.938429,48.6193702 C718.400649,48.6193702 715.792359,44.7430697 716.5647,38.8709496 L719.177369,17.8316191 L714.724369,17.8316191 L712.1117,38.8709496 C711.0897,46.9469399 714.963079,52.3795998 722.67407,52.3795998 C728.749859,52.3795998 733.15176,48.5215493 735.46367,43.8823991 L735.50747,43.8823991 C735.31913,45.6351287 735.04246,49.3026491 735.132981,52.1613294 L738.380751,51.9999989 L742.672421,17.8316191 L738.26322,17.8316202 Z M767.320861,17.4512897 C756.950481,17.4512897 748.989101,25.8484796 748.989101,37.4554796 C748.989101,46.3921395 754.395481,52.3803294 763.451861,52.3803294 C768.804221,52.3803294 773.526591,50.5662789 776.871452,46.9848991 L774.609181,44.1634496 C772.688552,46.1439399 769.465602,48.6186395 764.011042,48.6186395 C757.261461,48.6186395 753.560362,43.9970096 753.560362,37.0875601 C753.560362,27.7713004 759.301811,21.2115204 766.881401,21.2115204 C771.895041,21.2115204 774.764671,24.3154807 774.764671,28.6429206 C774.764671,29.9525408 774.459531,31.1628809 774.326671,31.5169314 L778.47015,31.1942715 C778.47015,31.1942715 779.02568,29.676602 779.02568,27.7479421 C779.02568,21.8480816 774.65663,17.4505612 767.32159,17.4505612 L767.320861,17.4512897 Z M794.59,21.4604496 L807.71321,21.4604496 L808.168731,17.8323498 L795.041141,17.8323498 L796.3639,7.18968027 L791.93937,7.4685408 L790.61296,17.8323509 L785.313891,17.8323509 L784.85837,21.4604507 L790.16912,21.4604507 L787.840421,40.0688809 C786.80309,48.1821009 789.493141,52.4088004 797.09755,52.4088004 C802.154261,52.4088004 805.645121,50.0019904 805.645121,50.0019904 L804.647941,46.46003 C804.647941,46.46003 801.906791,48.6040397 797.995451,48.6040397 C793.154821,48.6040397 791.579481,45.65703 792.29415,39.9360204 L794.59,21.4604496 Z M832.611671,29.3341447 C832.788346,28.9357206 833.064639,27.9165949 833.064639,26.8843475 C833.064639,23.2847177 830.135149,21.2137081 825.833989,21.2137081 C820.763409,21.2137081 817.574769,23.835868 817.574769,27.5924484 C817.574769,35.5676984 835.98026,30.807368 835.98026,41.8938776 C835.98026,48.4390579 830.27823,52.3810579 821.92338,52.3810579 C813.71891,52.3810579 810.16673,48.4295675 809.15203,47.341868 L812.19248,44.3722285 C812.957519,45.2701287 816.379029,48.6200987 822.423429,48.6200987 C828.15101,48.6200987 831.45426,46.0869989 831.45426,42.3917392 C831.45426,34.8318594 813.07797,38.7986792 813.07797,28.0326395 C813.07797,21.984589 818.57487,17.4527489 826.37857,17.4527489 C832.97193,17.4527489 837.324921,20.816589 837.324921,25.8995794 C837.324921,27.5515697 836.75406,29.0115697 836.75406,29.0115697 L832.611671,29.3341447 Z M832.611671,29.3341447 L832.610581,29.3342296 L832.61131,29.334957 C832.61143,29.3346865 832.61155,29.3344158 832.611671,29.3341447 Z M887.61022,17.8316202 L885.19173,37.1751599 C884.201119,42.2501202 879.837179,48.6193702 873.285429,48.6193702 C867.747649,48.6193702 865.139359,44.7430697 865.9117,38.8709496 L868.524369,17.8316191 L864.071369,17.8316191 L861.4587,38.8709496 C860.4367,46.9469399 864.310079,52.3795998 872.02107,52.3795998 C878.096859,52.3795998 882.49876,48.5215493 884.81067,43.8823991 L884.85447,43.8823991 C884.66613,45.6351287 884.38946,49.3026491 884.479981,52.1613294 L887.727751,51.9999989 L892.019421,17.8316191 L887.61022,17.8316202 Z M919.02284,17.4512897 C912.53825,17.4512897 907.9502,21.7261695 905.66019,26.3908691 L905.527329,26.3908691 C905.78867,24.1957585 906.065339,20.5282381 905.974819,17.6702886 L902.815379,17.8316191 L898.523709,51.9999989 L902.932179,51.9999989 L905.309059,32.9937188 C906.174839,27.8304292 910.637329,21.2122489 917.78695,21.2122489 C923.3532,21.2122489 926.14764,25.2038884 925.4045,31.0760085 L922.791831,51.9999989 L927.244831,51.9999989 L929.8575,31.0760085 C930.8795,23.0000182 926.7915,17.4520182 919.02284,17.4520182 L919.02284,17.4512897 Z M949.344111,6.28228969 C949.344111,4.56606009 948.068071,3.23234978 946.278841,3.23234978 C944.328281,3.23234978 942.437582,4.88871996 942.437582,6.95608049 C942.437582,8.70078004 943.742091,9.98996031 945.413791,9.98996031 C947.510351,9.98996031 949.343381,8.37812018 949.343381,6.28156009 L949.344111,6.28228969 Z M937.853911,51.9992704 L942.306911,51.9992704 L946.598581,17.6695601 L942.145581,17.8308906 L937.853911,51.9992704 Z M983.94829,17.8316202 L987.107729,17.8316202 L980.962589,66.892 L976.554119,66.892 L979.293079,44.89272 C976.73735,49.2092103 972.23179,52.3803305 966.30054,52.3803305 C958.19535,52.3803305 953.039359,46.4366706 953.039359,37.4116803 C953.039359,25.6718197 960.589019,17.4512897 970.8572,17.4512897 C977.486329,17.4512897 981.262619,21.4151899 982.161249,26.3908702 L982.253959,26.3908702 C982.499969,24.2840901 983.202959,20.5129099 983.94829,17.8316202 Z M967.462698,48.6193702 L967.463428,48.6193702 C974.727658,48.6193702 979.397468,42.1070397 980.288798,36.8999496 L980.801259,32.7820193 C981.185238,27.6041298 978.346998,21.2129796 970.710468,21.2129796 C963.174678,21.2129796 957.608428,27.7435601 957.608428,36.9999603 C957.608428,43.9977404 961.325588,48.6193702 967.462698,48.6193702 Z M1021.08922,17.8316202 L1018.67073,37.1751599 C1017.68012,42.2501202 1013.31618,48.6193702 1006.76443,48.6193702 C1001.22665,48.6193702 998.618359,44.7430697 999.3907,38.8709496 L1002.00337,17.8316191 L997.550369,17.8316191 L994.9377,38.8709496 C993.9157,46.9469399 997.789079,52.3795998 1005.50007,52.3795998 C1011.57586,52.3795998 1015.97776,48.5215493 1018.28967,43.8823991 L1018.33347,43.8823991 C1018.14513,45.6351287 1017.86846,49.3026491 1017.95898,52.1613294 L1021.20675,51.9999989 L1025.49842,17.8316191 L1021.08922,17.8316202 Z M1049.82785,17.4512897 L1049.82639,17.4512908 C1057.63447,17.4512908 1062.11667,22.9343208 1062.11667,30.7606513 C1062.11667,33.6098412 1061.39981,35.832691 1061.39981,35.832691 L1036.41556,35.832691 C1036.39512,36.2166706 1036.3849,36.6057608 1036.3849,36.9999603 C1036.3849,43.9977404 1040.26339,48.6193702 1047.08816,48.6193702 C1051.76454,48.6193702 1055.10502,46.5403305 1057.21618,44.2087103 L1059.56678,46.7206406 C1056.22192,50.5801502 1051.44188,52.3803305 1046.27932,52.3803305 C1037.22148,52.3803305 1031.85963,46.3921406 1031.85963,37.4401502 C1031.85963,25.6776599 1039.71297,17.4512897 1049.82785,17.4512897 Z M1049.39934,21.2122511 L1049.39861,21.21225 C1043.36224,21.21225 1038.36904,25.7170805 1036.85502,32.557911 L1057.63228,32.557911 C1057.7082,32.0126009 1057.75127,31.3745805 1057.75127,30.568661 C1057.75127,24.7410708 1054.54511,21.2122511 1049.39934,21.2122511 Z M1067.30477,49.4771202 C1067.30477,51.1050204 1068.49248,52.4387307 1070.19265,52.4387307 C1072.12788,52.4387307 1073.90178,50.7823605 1073.90178,48.7741309 C1073.90178,47.1462307 1072.67027,45.7687211 1071.05843,45.7687211 C1069.06407,45.7687211 1067.30623,47.4696213 1067.30623,49.4778509 L1067.30477,49.4771202 Z" id="Wich-makes-your-prod"></path>
        </g>
    </g>
</svg>