<?xml version="1.0" encoding="UTF-8" standalone="no"?>
<svg width="367px" height="90px" viewBox="0 0 367 90" version="1.1" xmlns="http://www.w3.org/2000/svg" xmlns:xlink="http://www.w3.org/1999/xlink">
    <!-- Generator: Sketch 41.2 (35397) - http://www.bohemiancoding.com/sketch -->
    <title>Page 1</title>
    <desc>Created with Sketch.</desc>
    <defs>
        <polygon id="path-1" points="0 0.00502452078 0 13.8987373 183.895565 13.8987373 183.895565 0.00502452078 0 0.00502452078"></polygon>
    </defs>
    <g id="final" stroke="none" stroke-width="1" fill="none" fill-rule="evenodd">
        <g id="Page-1">
            <path d="M35.3222294,74.4243022 C35.3222294,70.4817842 32.5777492,67.0786187 28.5215071,67.0786187 C24.3449556,67.0786187 21.6004754,70.4817842 21.6004754,74.4243022 C21.6004754,78.424446 24.3449556,81.7693381 28.5215071,81.7693381 C32.5777492,81.7693381 35.3222294,78.424446 35.3222294,74.4243022 L35.3222294,74.4243022 Z M21.6004754,88.8158849 L12.4724754,88.8158849 L12.4724754,47.0125036 L21.6004754,47.0125036 L21.6004754,64.152 C22.9723921,61.524518 26.6715865,59.3146619 30.4302889,59.3146619 C38.7225905,59.3146619 44.4502294,65.824446 44.4502294,74.4243022 C44.4502294,83.0228633 38.7225905,89.5326475 30.4302889,89.5326475 C26.6715865,89.5326475 22.9723921,87.3823597 21.6004754,84.7555252 L21.6004754,88.8158849 Z" id="Fill-1" fill="#FFFFFF"></path>
            <path d="M74.7582683,60.0313597 L74.7582683,88.8164676 L65.6315619,88.8164676 L65.6315619,84.6958921 C64.019673,87.7416475 60.6788198,89.5325827 56.2040817,89.5325827 C52.5055341,89.5325827 49.7021929,88.2790576 48.1504587,86.2479065 C46.3606929,84.0380504 45.9428437,81.2318633 45.9428437,77.1112878 L45.9428437,60.0313597 L55.0119825,60.0313597 L55.0119825,74.782295 C55.0119825,78.9028705 56.2648833,81.7692734 60.0830937,81.7692734 C63.8405024,81.7692734 65.6315619,78.9028705 65.6315619,74.4838058 L65.6315619,60.0313597 L74.7582683,60.0313597 Z" id="Fill-3" fill="#FFFFFF"></path>
            <path d="M97.0713512,88.8162734 C95.6994345,89.0551942 93.6709901,89.2941151 90.9860179,89.2941151 C86.691744,89.2941151 80.7855813,88.7573525 80.7855813,79.1415971 L80.7855813,66.8400863 L76.2513353,66.8400863 L76.2513353,60.0311655 L80.7855813,60.0311655 L80.7855813,51.4915252 L89.8527798,51.4915252 L89.8527798,60.0311655 L96.4141766,60.0311655 L96.4141766,66.8400863 L89.8527798,66.8400863 L89.8527798,77.111741 C89.8527798,81.3514532 91.5235298,82.008 93.790006,82.008 C94.9238909,82.008 96.2362996,81.9484317 97.0713512,81.829295 L97.0713512,88.8162734 Z" id="Fill-5" fill="#FFFFFF"></path>
            <path d="M112.107842,60.0313597 L121.235842,60.0313597 L121.235842,64.2115036 C122.847085,61.1061799 126.187291,59.3145971 130.662029,59.3145971 C134.361223,59.3145971 137.165212,60.5687698 138.716299,62.5992734 C140.506065,64.8091295 140.982128,67.615964 140.982128,71.7358921 L140.982128,88.8164676 L131.855422,88.8164676 L131.855422,74.0648849 C131.855422,69.9449568 130.602521,67.078554 126.784311,67.078554 C123.085116,67.078554 121.235842,69.9449568 121.235842,74.3640216 L121.235842,88.8164676 L112.107842,88.8164676 L112.107842,60.0313597 Z" id="Fill-7" fill="#FFFFFF"></path>
            <path d="M360.67825,77.409518 C364.079905,77.409518 366.704075,80.0972158 366.704075,83.3818921 C366.704075,86.6665683 364.079905,89.3536187 360.67825,89.3536187 C357.277889,89.3536187 354.653718,86.6665683 354.653718,83.3818921 C354.653718,80.0972158 357.277889,77.409518 360.67825,77.409518" id="Fill-9" fill="#FFFFFF"></path>
            <path d="M165.415117,74.3648633 C165.415117,70.3634245 162.670637,67.0191799 158.494732,67.0191799 C154.377688,67.0191799 151.693363,70.3634245 151.693363,74.3648633 C151.693363,78.4245755 154.377688,81.7098993 158.494732,81.7098993 C162.670637,81.7098993 165.415117,78.4245755 165.415117,74.3648633 M142.565363,74.3648633 C142.565363,66.1230647 148.589894,59.1956547 158.494732,59.1956547 C168.517291,59.1956547 174.482315,66.1230647 174.482315,74.3648633 C174.482315,82.6053669 168.517291,89.5334245 158.494732,89.5334245 C148.589894,89.5334245 142.565363,82.6053669 142.565363,74.3648633" id="Fill-11" fill="#FFFFFF"></path>
            <path d="M28.7595389,41.8038993 C27.3876222,42.0428201 25.3591778,42.281741 22.6742056,42.281741 C18.3786381,42.281741 12.4724754,41.7443309 12.4724754,32.129223 L12.4724754,19.8277122 L7.93822937,19.8277122 L7.93822937,13.0187914 L12.4724754,13.0187914 L12.4724754,4.47915108 L21.5396738,4.47915108 L21.5396738,13.0187914 L28.1023643,13.0187914 L28.1023643,19.8277122 L21.5396738,19.8277122 L21.5396738,30.0993669 C21.5396738,34.3390791 23.2110706,34.9956259 25.4781937,34.9956259 C26.6120786,34.9956259 27.9231937,34.9360576 28.7595389,34.8169209 L28.7595389,41.8038993 Z" id="Fill-13" fill="#FFFFFF"></path>
            <path d="M30.2121147,0.000258992806 L39.0432218,0.000258992806 L39.0432218,17.1993237 C40.6531702,14.2137842 43.9338687,12.3024173 48.3490988,12.3024173 C52.0469996,12.3024173 54.6136028,13.5565899 56.1646901,15.5870935 C57.9538091,17.7969496 58.491321,20.6633525 58.491321,24.7839281 L58.491321,41.8036403 L49.6615075,41.8036403 L49.6615075,27.052705 C49.6615075,22.9321295 48.4086067,20.0663741 44.5903964,20.0663741 C40.8924956,20.0663741 39.0432218,22.9321295 39.0432218,27.3518417 L39.0432218,41.8036403 L30.2121147,41.8036403 L30.2121147,0.000258992806 Z" id="Fill-15" fill="#FFFFFF"></path>
            <path d="M82.7341429,27.4119281 C82.7341429,23.4694101 79.9909563,20.0662446 75.8732659,20.0662446 C71.756869,20.0662446 69.0123889,23.4694101 69.0123889,27.4119281 C69.0123889,31.4120719 71.756869,34.756964 75.8732659,34.756964 C79.9909563,34.756964 82.7341429,31.4120719 82.7341429,27.4119281 L82.7341429,27.4119281 Z M91.8621429,13.0190504 L91.8621429,41.8035108 L82.7341429,41.8035108 L82.7341429,37.7431511 C81.3622262,40.3699856 77.6643254,42.5202734 73.965131,42.5202734 C65.6715357,42.5202734 59.9438968,36.0104892 59.9438968,27.4119281 C59.9438968,18.8120719 65.6715357,12.3022878 73.965131,12.3022878 C77.6643254,12.3022878 81.3622262,14.5121439 82.7341429,17.1396259 L82.7341429,13.0190504 L91.8621429,13.0190504 Z" id="Fill-17" fill="#FFFFFF"></path>
            <path d="M93.8008726,13.0190504 L102.928873,13.0190504 L102.928873,17.1991942 C104.538821,14.0938705 107.880968,12.3022878 112.355059,12.3022878 C116.053607,12.3022878 118.856948,13.5564604 120.409329,15.586964 C122.199095,17.7968201 122.676452,20.6036547 122.676452,24.7235827 L122.676452,41.8041583 L113.548452,41.8041583 L113.548452,27.0525755 C113.548452,22.9326475 112.295551,20.0662446 108.477341,20.0662446 C104.778793,20.0662446 102.928873,22.9326475 102.928873,27.3517122 L102.928873,41.8041583 L93.8008726,41.8041583 L93.8008726,13.0190504 Z" id="Fill-19" fill="#FFFFFF"></path>
            <polygon id="Fill-21" fill="#FFFFFF" points="142.273838 27.4119281 153.430283 41.8035108 142.573319 41.8035108 133.742212 29.7409209 133.742212 41.8035108 124.615505 41.8035108 124.615505 0.000129496403 133.742212 0.000129496403 133.742212 25.2020719 142.631533 13.0190504 153.489791 13.0190504"></polygon>
            <path d="M176.356168,33.3239568 C176.356168,40.1315827 170.509513,42.5803597 163.35045,42.5803597 C155.176517,42.5803597 150.106053,38.8171942 150.106053,32.1889209 L159.055529,32.1889209 C159.055529,35.2346763 160.963664,36.4292806 163.648637,36.4292806 C165.856252,36.4292806 167.407986,35.6529496 167.407986,33.7409353 C167.407986,31.5323741 165.140216,31.2338849 159.710763,29.4416547 C154.938486,27.9492086 150.821442,26.5752518 150.821442,21.0205036 C150.821442,15.0494245 155.774184,12.2425899 163.529621,12.2425899 C171.880783,12.2425899 175.938319,16.4829496 175.938319,21.9768345 L166.929982,21.9768345 C166.929982,19.5882734 165.677081,18.2143165 163.171279,18.2143165 C161.322006,18.2143165 159.771565,19.0508633 159.771565,20.7822302 C159.771565,22.8729496 162.27672,23.2310072 167.109152,24.8425899 C172.179617,26.3363309 176.356168,27.7102878 176.356168,33.3239568" id="Fill-23" fill="#FFFFFF"></path>
            <path d="M184.544266,42.200482 C184.623179,44.1565252 182.69758,45.6593309 180.482203,45.6593309 L180.482203,49.0825683 C185.108945,49.0825683 189.502183,45.6593309 190.844992,39.7128561 C191.971115,34.7265971 189.511238,31.076741 185.306227,30.6545827 C182.042346,30.3269568 179.007441,32.1159496 178.259711,35.3753741 C177.327635,39.4370288 181.111564,43.4650144 184.544266,42.200482" id="Fill-25" fill="#FFFFFF"></path>
            <path d="M205.180454,88.8162086 C203.808538,89.0551295 201.780093,89.2940504 199.095121,89.2940504 C194.799554,89.2940504 188.893391,88.7566403 188.893391,79.1415324 L188.893391,66.8400216 L184.359145,66.8400216 L184.359145,60.0311007 L188.893391,60.0311007 L188.893391,51.4914604 L197.960589,51.4914604 L197.960589,60.0311007 L204.52328,60.0311007 L204.52328,66.8400216 L197.960589,66.8400216 L197.960589,77.1116763 C197.960589,81.3513885 199.631986,82.0079353 201.899109,82.0079353 C203.032994,82.0079353 204.344109,81.9483669 205.180454,81.8292302 L205.180454,88.8162086 Z" id="Fill-27" fill="#FFFFFF"></path>
            <path d="M206.63303,47.0126331 L215.464137,47.0126331 L215.464137,64.2116978 C217.074086,61.2261583 220.354784,59.3147914 224.770014,59.3147914 C228.467915,59.3147914 231.034518,60.568964 232.585606,62.5994676 C234.374725,64.8093237 234.912237,67.6757266 234.912237,71.7963022 L234.912237,88.8160144 L226.082423,88.8160144 L226.082423,74.0650791 C226.082423,69.9445036 224.829522,67.0787482 221.011312,67.0787482 C217.313411,67.0787482 215.464137,69.9445036 215.464137,74.3642158 L215.464137,88.8160144 L206.63303,88.8160144 L206.63303,47.0126331 Z" id="Fill-29" fill="#FFFFFF"></path>
            <path d="M259.155058,74.4243022 C259.155058,70.4817842 256.411872,67.0786187 252.294181,67.0786187 C248.177785,67.0786187 245.433304,70.4817842 245.433304,74.4243022 C245.433304,78.424446 248.177785,81.7693381 252.294181,81.7693381 C256.411872,81.7693381 259.155058,78.424446 259.155058,74.4243022 L259.155058,74.4243022 Z M268.283058,60.0314245 L268.283058,88.8158849 L259.155058,88.8158849 L259.155058,84.7555252 C257.783142,87.3823597 254.085241,89.5326475 250.386046,89.5326475 C242.092451,89.5326475 236.364812,83.0228633 236.364812,74.4243022 C236.364812,65.824446 242.092451,59.3146619 250.386046,59.3146619 C254.085241,59.3146619 257.783142,61.524518 259.155058,64.152 L259.155058,60.0314245 L268.283058,60.0314245 Z" id="Fill-31" fill="#FFFFFF"></path>
            <path d="M270.221788,60.0314245 L279.349788,60.0314245 L279.349788,64.2115683 C280.959737,61.1062446 284.301883,59.3146619 288.775975,59.3146619 C292.474522,59.3146619 295.277863,60.5688345 296.830244,62.5993381 C298.62001,64.8091942 299.097367,67.6160288 299.097367,71.7359568 L299.097367,88.8165324 L289.969367,88.8165324 L289.969367,74.0649496 C289.969367,69.9450216 288.716467,67.0786187 284.898256,67.0786187 C281.199709,67.0786187 279.349788,69.9450216 279.349788,74.3640863 L279.349788,88.8165324 L270.221788,88.8165324 L270.221788,60.0314245 Z" id="Fill-33" fill="#FFFFFF"></path>
            <polygon id="Fill-35" fill="#FFFFFF" points="318.694754 74.4243022 329.851198 88.8158849 318.994234 88.8158849 310.163127 76.753295 310.163127 88.8158849 301.036421 88.8158849 301.036421 47.0125036 310.163127 47.0125036 310.163127 72.214446 319.052448 60.0314245 329.910706 60.0314245"></polygon>
            <path d="M352.777084,80.3363309 C352.777084,87.1439568 346.930429,89.5927338 339.771365,89.5927338 C331.597433,89.5927338 326.526969,85.8295683 326.526969,79.201295 L335.476445,79.201295 C335.476445,82.2470504 337.38458,83.4416547 340.069552,83.4416547 C342.277167,83.4416547 343.828901,82.6653237 343.828901,80.7533094 C343.828901,78.5447482 341.561131,78.246259 336.131679,76.4540288 C331.359401,74.9615827 327.242358,73.5876259 327.242358,68.0328777 C327.242358,62.0617986 332.1951,59.254964 339.950536,59.254964 C348.301699,59.254964 352.359235,63.4953237 352.359235,68.9892086 L343.350897,68.9892086 C343.350897,66.6006475 342.097996,65.2266906 339.592195,65.2266906 C337.742921,65.2266906 336.192481,66.0632374 336.192481,67.7946043 C336.192481,69.8853237 338.697635,70.2433813 343.530068,71.854964 C348.600532,73.348705 352.777084,74.7226619 352.777084,80.3363309" id="Fill-37" fill="#FFFFFF"></path>
            <g id="Group-41" transform="translate(0.000000, 66.930863)">
                <mask id="mask-2" fill="white">
                    <use xlink:href="#path-1"></use>
                </mask>
                <g id="Clip-40"></g>
                <path d="M153.739271,0.956654676 C150.721184,0.597302158 97.6918508,2.67183453 93.6918825,2.92758993 C93.6957635,3.04284173 93.7002913,3.15938849 93.7035254,3.27464029 C97.3768468,3.26363309 149.749006,1.44420863 153.417799,1.31665468 C153.413918,1.20010791 153.743799,1.07320144 153.739271,0.956654676 L153.739271,0.956654676 Z M90.4726325,6.40651079 C89.1382317,6.4531295 87.8044778,6.49910072 85.473319,6.69723022 C87.4868865,6.97435252 88.4991683,7.28838129 90.4726325,6.40651079 L90.4726325,6.40651079 Z M63.1662516,8.74910072 C60.1281127,7.80960432 58.7904778,7.73902878 49.4858944,9.10780576 C53.8267397,9.07348921 57.8409381,9.28133094 63.1662516,8.74910072 L63.1662516,8.74910072 Z M44.5564381,11.3688129 C42.2007,10.8708993 42.2007,10.8708993 38.2130214,11.473705 C40.881823,11.3811151 42.5545135,11.438741 44.5564381,11.3688129 L44.5564381,11.3688129 Z M38.0235016,6.02190647 C36.6942754,6.18507194 35.6968706,6.33464029 34.7007595,6.48615108 C34.7046405,6.60269784 35.0377556,6.59169065 35.0422833,6.70694245 C36.0377476,6.55607914 37.0357992,6.40456835 37.6987952,6.26535971 C38.0319103,6.25370504 38.0280294,6.13845324 38.0235016,6.02190647 L38.0235016,6.02190647 Z M34.5403468,11.4847122 C33.5144817,10.8242806 31.5261405,11.2419065 29.5326246,11.5429856 C31.1988468,11.4860072 32.5338944,11.4393885 34.5403468,11.4847122 L34.5403468,11.4847122 Z M30.2234341,12.2157194 C28.2215095,12.2856475 26.2254063,12.4714748 24.2234817,12.5407554 C23.8897198,12.5524101 23.8936008,12.6676619 23.8936008,12.6676619 C25.8974659,12.7149281 27.5669222,12.6566547 29.572081,12.7026259 L30.2234341,12.2157194 Z M183.895565,3.74147482 C182.58445,4.48348921 177.585137,5.72730216 179.968041,7.03845324 C176.676994,8.42989209 172.683494,8.80089928 168.695815,9.40305755 C158.398355,11.0385971 99.3464302,11.9042806 88.6757516,12.3918345 C83.6725571,12.5653597 78.6848865,13.2031295 73.6803984,13.3773022 C69.0161405,13.6550719 64.3492952,13.9328417 59.6708071,13.8635612 C47.6508508,13.9328417 35.625073,13.886223 23.6005889,13.8396043 C21.5941365,13.7923381 19.9220929,13.7353597 18.2474619,13.5598921 C13.2112794,12.8068705 7.84133492,12.0648561 2.47268413,11.3215468 C3.79802937,11.043777 5.1207873,10.6488129 6.77536667,10.2428417 C4.0942754,9.98838129 1.75341429,9.83751799 0.0768428571,9.66334532 C0.0483825397,8.85205036 0.02445,8.15535971 -0.000129365078,7.45996403 C1.3336246,7.41334532 3.33943016,7.45931655 5.00823968,7.40104317 C7.67251349,7.19320144 10.004319,6.99507194 11.301204,5.90535971 C11.297323,5.79010791 11.9557913,5.53564748 12.2869659,5.40679856 C16.9518706,5.12838129 20.2390373,3.62104317 25.2467595,3.56276978 C36.2628429,3.41255396 46.9374024,3.04154676 57.9554262,2.89197842 C70.6377317,2.68348921 83.6557397,2.46334532 96.320581,1.67471223 C101.653656,1.37363309 155.709502,-0.0404676259 161.05422,0.00615107914 C167.072283,0.146007194 173.100696,0.632913669 178.803109,1.36327338 C181.825077,1.83852518 183.847053,2.34938849 183.895565,3.74147482 L183.895565,3.74147482 Z" id="Fill-39" fill="#EC6351" mask="url(#mask-2)"></path>
            </g>
        </g>
    </g>
</svg>