<?xml version="1.0" encoding="UTF-8"?>
<svg width="121px" height="30px" viewBox="0 0 121 30" version="1.1" xmlns="http://www.w3.org/2000/svg" xmlns:xlink="http://www.w3.org/1999/xlink">
    <!-- Generator: Sketch 46 (44423) - http://www.bohemiancoding.com/sketch -->
    <title>Page 1</title>
    <desc>Created with Sketch.</desc>
    <defs>
        <polygon id="path-1" points="4.03952205 0.0397553957 4.03952205 4.02090647 0.0638504409 4.02090647 0.0638504409 0.0397553957 4.03952205 0.0397553957"></polygon>
    </defs>
    <g id="Page-1" stroke="none" stroke-width="1" fill="none" fill-rule="evenodd">
        <g id="Screen1" transform="translate(-263.000000, -64.000000)">
            <g id="Page-1" transform="translate(263.000000, 64.000000)">
                <path d="M11.6537085,24.808036 C11.6537085,23.4940791 10.7482358,22.3594748 9.40998007,22.3594748 C8.03203122,22.3594748 7.12655855,23.4940791 7.12655855,24.808036 C7.12655855,26.1416331 8.03203122,27.2563813 9.40998007,27.2563813 C10.7482358,27.2563813 11.6537085,26.1416331 11.6537085,24.808036 L11.6537085,24.808036 Z M7.12655855,29.605446 L4.115003,29.605446 L4.115003,15.6707698 L7.12655855,15.6707698 L7.12655855,21.3839353 C7.57918818,20.5081079 8.79964497,19.7714892 10.0397349,19.7714892 C12.7755727,19.7714892 14.665264,21.9414173 14.665264,24.808036 C14.665264,27.6744388 12.7755727,29.8443669 10.0397349,29.8443669 C8.79964497,29.8443669 7.57918818,29.1276043 7.12655855,28.251777 L7.12655855,29.605446 Z" id="Fill-1" fill="#2D2D2A"></path>
                <path d="M24.6645802,20.0104964 L24.6645802,29.6053165 L21.6534515,29.6053165 L21.6534515,28.2320072 C21.121649,29.2470432 20.019418,29.8442374 18.5430899,29.8442374 C17.32306,29.8442374 16.3979541,29.4261799 15.8859982,28.7493453 C15.2957231,28.0127266 15.1576508,27.0771151 15.1576508,25.7038058 L15.1576508,20.0104964 L18.1497866,20.0104964 L18.1497866,24.9274748 C18.1497866,26.301 18.5631499,27.2562518 19.822873,27.2562518 C21.0625362,27.2562518 21.6534515,26.301 21.6534515,24.8277626 L21.6534515,20.0104964 L24.6645802,20.0104964 Z" id="Fill-3" fill="#2D2D2A"></path>
                <path d="M32.0262885,29.6053381 C31.5736589,29.6851942 30.9044243,29.7646187 30.0185848,29.7646187 C28.6017965,29.7646187 26.6532056,29.5856978 26.6532056,26.380446 L26.6532056,22.2801583 L25.1572444,22.2801583 L25.1572444,20.010518 L26.6532056,20.010518 L26.6532056,17.1637554 L29.6447012,17.1637554 L29.6447012,20.010518 L31.8094702,20.010518 L31.8094702,22.2801583 L29.6447012,22.2801583 L29.6447012,25.7038273 C29.6447012,27.1172806 30.1959235,27.3359137 30.9436907,27.3359137 C31.3177877,27.3359137 31.7507841,27.3162734 32.0262885,27.2765612 L32.0262885,29.6053381 Z" id="Fill-5" fill="#2D2D2A"></path>
                <path d="M36.9872032,20.0104964 L39.9987587,20.0104964 L39.9987587,21.4038777 C40.5303478,20.3687698 41.6323654,19.7715755 43.1086935,19.7715755 C44.3291503,19.7715755 45.2542561,20.1896331 45.7659986,20.8664676 C46.3562737,21.6030863 46.5135524,22.5386978 46.5135524,23.9120072 L46.5135524,29.6053165 L43.5024236,29.6053165 L43.5024236,24.6883381 C43.5024236,23.3150288 43.0890603,22.3595612 41.8293372,22.3595612 C40.6088804,22.3595612 39.9987587,23.3150288 39.9987587,24.7880504 L39.9987587,29.6053165 L36.9872032,29.6053165 L36.9872032,20.0104964 Z" id="Fill-7" fill="#2D2D2A"></path>
                <g id="Group-11" transform="translate(116.945326, 25.763525)">
                    <mask id="mask-2" fill="white">
                        <use xlink:href="#path-1"></use>
                    </mask>
                    <g id="Clip-10"></g>
                    <path d="M2.05149418,0.0397553957 C3.17378519,0.0397553957 4.03956473,0.935438849 4.03956473,2.03054676 C4.03956473,3.12543885 3.17378519,4.02090647 2.05149418,4.02090647 C0.929629982,4.02090647 0.0638504409,3.12543885 0.0638504409,2.03054676 C0.0638504409,0.935438849 0.929629982,0.0397553957 2.05149418,0.0397553957" id="Fill-9" fill="#2D2D2A" mask="url(#mask-2)"></path>
                </g>
                <path d="M54.5745638,24.788223 C54.5745638,23.4544101 53.6690912,22.3396619 52.2913557,22.3396619 C50.93304,22.3396619 50.0474139,23.4544101 50.0474139,24.788223 C50.0474139,26.1416763 50.93304,27.2365683 52.2913557,27.2365683 C53.6690912,27.2365683 54.5745638,26.1416763 54.5745638,24.788223 M47.0358584,24.788223 C47.0358584,22.0409568 49.0235021,19.7318201 52.2913557,19.7318201 C55.5980489,19.7318201 57.5660594,22.0409568 57.5660594,24.788223 C57.5660594,27.5352734 55.5980489,29.8444101 52.2913557,29.8444101 C49.0235021,29.8444101 47.0358584,27.5352734 47.0358584,24.788223" id="Fill-12" fill="#2D2D2A"></path>
                <path d="M9.48853404,13.9346763 C9.03590441,14.0143165 8.36666984,14.093741 7.48083034,14.093741 C6.06361517,14.093741 4.11502434,13.9146043 4.11502434,10.7097842 L4.11502434,6.60928058 L2.61906314,6.60928058 L2.61906314,4.33964029 L4.11502434,4.33964029 L4.11502434,1.49309353 L7.10651993,1.49309353 L7.10651993,4.33964029 L9.2717157,4.33964029 L9.2717157,6.60928058 L7.10651993,6.60928058 L7.10651993,10.0329496 C7.10651993,11.4464029 7.65795556,11.665036 8.40593616,11.665036 C8.78003316,11.665036 9.21281623,11.6453957 9.48853404,11.6056835 L9.48853404,13.9346763 Z" id="Fill-14" fill="#2D2D2A"></path>
                <path d="M9.96775379,0.000107913669 L12.8811436,0.000107913669 L12.8811436,5.73291367 C13.4125192,4.73794964 14.4946903,4.10082734 15.9515986,4.10082734 C17.1716286,4.10082734 18.0184152,4.51888489 18.5301577,5.19571942 C19.1204328,5.93233813 19.2977714,6.88780576 19.2977714,8.26111511 L19.2977714,13.9345683 L16.3845951,13.9345683 L16.3845951,9.01758993 C16.3845951,7.64406475 15.9712317,6.68859712 14.7115086,6.68859712 C13.4914787,6.68859712 12.8811436,7.64406475 12.8811436,9.11730216 L12.8811436,13.9345683 L9.96775379,13.9345683 L9.96775379,0.000107913669 Z" id="Fill-16" fill="#2D2D2A"></path>
                <path d="M27.2960848,9.13735252 C27.2960848,7.82317986 26.391039,6.68857554 25.0325099,6.68857554 C23.6744076,6.68857554 22.7689349,7.82317986 22.7689349,9.13735252 C22.7689349,10.4707338 23.6744076,11.585482 25.0325099,11.585482 C26.391039,11.585482 27.2960848,10.4707338 27.2960848,9.13735252 L27.2960848,9.13735252 Z M30.3076404,4.33972662 L30.3076404,13.9345468 L27.2960848,13.9345468 L27.2960848,12.5810935 C26.8434552,13.456705 25.6234252,14.1734676 24.402755,14.1734676 C21.6667039,14.1734676 19.7770125,12.0035396 19.7770125,9.13735252 C19.7770125,6.27051799 21.6667039,4.10080576 24.402755,4.10080576 C25.6234252,4.10080576 26.8434552,4.83742446 27.2960848,5.71303597 L27.2960848,4.33972662 L30.3076404,4.33972662 Z" id="Fill-18" fill="#2D2D2A"></path>
                <path d="M30.9472758,4.33972662 L33.9588314,4.33972662 L33.9588314,5.73310791 C34.4899937,4.698 35.5928649,4.10080576 37.0687661,4.10080576 C38.2887961,4.10080576 39.2139019,4.51886331 39.7260713,5.19569784 C40.3163464,5.93231655 40.4740519,6.86771223 40.4740519,8.24123741 L40.4740519,13.9347626 L37.4624963,13.9347626 L37.4624963,9.01756835 C37.4624963,7.64425899 37.049133,6.68879137 35.7894099,6.68879137 C34.5691665,6.68879137 33.9588314,7.64425899 33.9588314,9.11728058 L33.9588314,13.9347626 L30.9472758,13.9347626 L30.9472758,4.33972662 Z" id="Fill-20" fill="#2D2D2A"></path>
                <polygon id="Fill-22" fill="#2D2D2A" points="46.9396559 9.13735252 50.620446 13.9345468 47.0384619 13.9345468 44.1248587 9.91368345 44.1248587 13.9345468 41.11373 13.9345468 41.11373 8.63309353e-05 44.1248587 8.63309353e-05 44.1248587 8.40073381 47.0576683 4.33972662 50.6400792 4.33972662"></polygon>
                <path d="M58.1843118,11.1079424 C58.1843118,13.3771511 56.2553541,14.1934101 53.8936134,14.1934101 C51.1966152,14.1934101 49.5237422,12.9390216 49.5237422,10.7295971 L52.4761848,10.7295971 C52.4761848,11.7448489 53.1059397,12.1430504 53.9917792,12.1430504 C54.7201266,12.1430504 55.2320825,11.8842734 55.2320825,11.2471511 C55.2320825,10.5107482 54.4838885,10.4112518 52.6925764,9.81384173 C51.1180825,9.31657554 49.7597668,8.8583741 49.7597668,7.00700719 C49.7597668,5.01643165 51.3938004,4.08082014 53.9525129,4.08082014 C56.7079838,4.08082014 58.0464529,5.49427338 58.0464529,7.32556835 L55.0743771,7.32556835 C55.0743771,6.52959712 54.6610138,6.07139568 53.8342871,6.07139568 C53.2241654,6.07139568 52.7124229,6.35046043 52.7124229,6.92736691 C52.7124229,7.62448921 53.5391496,7.7436259 55.1334899,8.28103597 C56.806363,8.77873381 58.1843118,9.23671942 58.1843118,11.1079424" id="Fill-24" fill="#2D2D2A"></path>
                <path d="M60.8858342,14.0668273 C60.9118695,14.7188417 60.2765661,15.219777 59.5456578,15.219777 L59.5456578,16.3608561 C61.0721358,16.3608561 62.521575,15.219777 62.9646014,13.2376187 C63.3361376,11.5755324 62.5243492,10.3589137 61.1370106,10.2181942 C60.0601746,10.1089856 59.059097,10.7053165 58.8124021,11.7917914 C58.5048871,13.1456763 59.7530864,14.4883381 60.8858342,14.0668273" id="Fill-26" fill="#2D2D2A"></path>
                <path d="M50.7224744,22.6291079 C49.7267319,22.5093237 32.2310282,23.2008345 30.9113386,23.2860863 C30.912619,23.3247194 30.9138995,23.3633525 30.9151799,23.4017698 C32.1268871,23.3981007 49.4059859,22.7916259 50.6164127,22.7493237 C50.6151323,22.710259 50.7237549,22.6681727 50.7224744,22.6291079 L50.7224744,22.6291079 Z M29.8492275,24.4459424 C29.4087619,24.4612662 28.9687231,24.4768058 28.1996155,24.5426331 C28.8641552,24.6350072 29.1981323,24.7396835 29.8492275,24.4459424 L29.8492275,24.4459424 Z M20.8401693,25.2265899 C19.8375979,24.9136403 19.3964921,24.8901151 16.3264638,25.3461583 C17.7588307,25.3349353 19.0832152,25.404 20.8401693,25.2265899 L20.8401693,25.2265899 Z M14.7003263,26.0998273 C13.9231093,25.9340719 13.9231093,25.9340719 12.6074744,26.1347914 C13.4879788,26.1041439 14.0396279,26.1231367 14.7003263,26.0998273 L14.7003263,26.0998273 Z M12.5449471,24.3175252 C12.1064021,24.3719137 11.7771199,24.4219856 11.4486914,24.4724892 C11.4499718,24.5113381 11.5598748,24.5074532 11.5613686,24.5458705 C11.8897972,24.4955827 12.2190794,24.445295 12.4378183,24.3986763 C12.5477213,24.3950072 12.5464409,24.3565899 12.5449471,24.3175252 L12.5449471,24.3175252 Z M11.3957672,26.1386763 C11.0570952,25.9183165 10.4013051,26.057741 9.74359436,26.1581007 C10.2933228,26.1388921 10.7337884,26.1233525 11.3957672,26.1386763 L11.3957672,26.1386763 Z M9.9712963,26.3823453 C9.31081129,26.4054388 8.65224691,26.4673813 7.99197531,26.4906906 C7.8816455,26.4943597 7.88313933,26.532777 7.88313933,26.532777 C8.54426455,26.5485324 9.09505996,26.5291079 9.75661199,26.5446475 L9.9712963,26.3823453 Z M60.6717901,23.5575971 C60.2392205,23.8047194 58.5896085,24.2193237 59.3760018,24.6563741 C58.2902028,25.1204029 56.9726473,25.2438561 55.6570123,25.4447914 C52.2596226,25.9897554 32.7769153,26.2783165 29.2563915,26.4408345 C27.6057125,26.4988921 25.9599418,26.7112662 24.3090494,26.7693237 C22.770194,26.8621295 21.2302716,26.9547194 19.6869347,26.9316259 C15.7212504,26.9545036 11.7536455,26.938964 7.78646737,26.9234245 C7.12448854,26.9076691 6.5726261,26.8888921 6.02033686,26.8304029 C4.35877425,26.5793957 2.58709524,26.3318417 0.815843034,26.0842878 C1.25289418,25.991482 1.68930511,25.8600432 2.23540564,25.7245036 C1.35084656,25.6396835 0.578537919,25.5896115 0.0253950617,25.5313381 C0.016005291,25.2609065 0.00789594356,25.0286763 0,24.7968777 C0.440038801,24.7813381 1.10159083,24.7966619 1.65238624,24.7772374 C2.53139683,24.7081727 3.30050441,24.6421295 3.72859259,24.2788921 C3.72731217,24.2404748 3.94455732,24.1554388 4.05382011,24.1124892 C5.59267549,24.0196835 6.67740741,23.5174532 8.32958025,23.4978129 C11.9640617,23.447741 15.4856526,23.3242878 19.1209877,23.2742158 C23.3051975,23.2047194 27.5999506,23.1313381 31.7783986,22.8684604 C33.538127,22.7683165 51.3722892,22.2969496 53.1358589,22.3122734 C55.1213686,22.3588921 57.1102928,22.5214101 58.9916614,22.7646475 C59.9886843,22.9232806 60.6557848,23.0933525 60.6717901,23.5575971 L60.6717901,23.5575971 Z" id="Fill-28" fill="#ABA4F0"></path>
                <path d="M67.6942289,29.6053381 C67.2415993,29.6851942 66.5723647,29.7646187 65.6865252,29.7646187 C64.2690966,29.7646187 62.3207192,29.585482 62.3207192,26.380446 L62.3207192,22.2801583 L60.824758,22.2801583 L60.824758,20.010518 L62.3207192,20.010518 L62.3207192,17.1637554 L65.3122148,17.1637554 L65.3122148,20.010518 L67.4774106,20.010518 L67.4774106,22.2801583 L65.3122148,22.2801583 L65.3122148,25.7038273 C65.3122148,27.1172806 65.8636504,27.3359137 66.611631,27.3359137 C66.985728,27.3359137 67.4182977,27.3162734 67.6942289,27.2765612 L67.6942289,29.6053381 Z" id="Fill-30" fill="#2D2D2A"></path>
                <path d="M68.173342,15.6707698 L71.0867317,15.6707698 L71.0867317,21.4037914 C71.6183208,20.4088273 72.7004919,19.7714892 74.1571868,19.7714892 C75.3774302,19.7714892 76.2242168,20.1895468 76.7357459,20.8663813 C77.3262344,21.603 77.5033596,22.5584676 77.5033596,23.9319928 L77.5033596,29.6052302 L74.5901832,29.6052302 L74.5901832,24.6882518 C74.5901832,23.3149424 74.1770333,22.3594748 72.9170968,22.3594748 C71.6970668,22.3594748 71.0867317,23.3149424 71.0867317,24.787964 L71.0867317,29.6052302 L68.173342,29.6052302 L68.173342,15.6707698 Z" id="Fill-32" fill="#2D2D2A"></path>
                <path d="M85.5017797,24.808036 C85.5017797,23.4940791 84.5967339,22.3594748 83.2382048,22.3594748 C81.8801025,22.3594748 80.9746298,23.4940791 80.9746298,24.808036 C80.9746298,26.1416331 81.8801025,27.2563813 83.2382048,27.2563813 C84.5967339,27.2563813 85.5017797,26.1416331 85.5017797,24.808036 L85.5017797,24.808036 Z M88.5133353,20.0104101 L88.5133353,29.605446 L85.5017797,29.605446 L85.5017797,28.251777 C85.0491501,29.1276043 83.8291201,29.8443669 82.6084499,29.8443669 C79.8723988,29.8443669 77.9829208,27.6744388 77.9829208,24.808036 C77.9829208,21.9414173 79.8723988,19.7714892 82.6084499,19.7714892 C83.8291201,19.7714892 85.0491501,20.5081079 85.5017797,21.3839353 L85.5017797,20.0104101 L88.5133353,20.0104101 Z" id="Fill-34" fill="#2D2D2A"></path>
                <path d="M89.1529707,20.0104964 L92.1645263,20.0104964 L92.1645263,21.4038777 C92.6956885,20.3687698 93.7985598,19.7715755 95.274461,19.7715755 C96.494491,19.7715755 97.4195968,20.1896331 97.9317661,20.8664676 C98.5220413,21.6030863 98.6797467,22.5386978 98.6797467,23.9120072 L98.6797467,29.6053165 L95.6679778,29.6053165 L95.6679778,24.6883381 C95.6679778,23.3150288 95.2548279,22.3595612 93.9948914,22.3595612 C92.7748614,22.3595612 92.1645263,23.3150288 92.1645263,24.7880504 L92.1645263,29.6053165 L89.1529707,29.6053165 L89.1529707,20.0104964 Z" id="Fill-36" fill="#2D2D2A"></path>
                <polygon id="Fill-38" fill="#2D2D2A" points="105.145351 24.808036 108.826141 29.605446 105.244157 29.605446 102.330767 25.5845827 102.330767 29.605446 99.3192115 29.605446 99.3192115 15.6707698 102.330767 15.6707698 102.330767 24.0714173 105.263363 20.0104101 108.845774 20.0104101"></polygon>
                <path d="M116.3899,26.7787122 C116.3899,29.0479209 114.460942,29.8641799 112.099202,29.8641799 C109.402417,29.8641799 107.729544,28.6097914 107.729544,26.4003669 L110.681986,26.4003669 C110.681986,27.4156187 111.311528,27.8138201 112.197367,27.8138201 C112.925928,27.8138201 113.437671,27.5550432 113.437671,26.9179209 C113.437671,26.181518 112.689477,26.0820216 110.898378,25.4846115 C109.323884,24.9871295 107.965355,24.5291439 107.965355,22.677777 C107.965355,20.6872014 109.599389,19.7515899 112.158314,19.7515899 C114.913572,19.7515899 116.252041,21.1650432 116.252041,22.9963381 L113.280179,22.9963381 C113.280179,22.2003669 112.866602,21.7421655 112.040089,21.7421655 C111.429967,21.7421655 110.918225,22.0212302 110.918225,22.5981367 C110.918225,23.2950432 111.744738,23.4143957 113.339078,23.9515899 C115.011951,24.4495036 116.3899,24.9074892 116.3899,26.7787122" id="Fill-40" fill="#2D2D2A"></path>
            </g>
        </g>
    </g>
</svg>