<?xml version="1.0" encoding="utf-8"?>
<!-- Generator: Adobe Illustrator 19.2.0, SVG Export Plug-In . SVG Version: 6.00 Build 0)  -->
<svg version="1.1" id="Calque_1" xmlns="http://www.w3.org/2000/svg" xmlns:xlink="http://www.w3.org/1999/xlink" x="0px" y="0px"
	 viewBox="0 0 595.7 239.2" style="enable-background:new 0 0 595.7 239.2;" xml:space="preserve">
<style type="text/css">
	.st0{fill:#FFFFFF;}
</style>
<g>
	<path class="st0" d="M144.2,105.6c-0.5,0-1.1-0.1-1.6-0.2c-3.1-0.9-4.9-4.1-4-7.2l1-3.6c0.9-3.1,4.1-4.9,7.2-4
		c3.1,0.9,4.9,4.1,4,7.2l-1,3.6C149,104,146.7,105.6,144.2,105.6z"/>
</g>
<g>
	<path class="st0" d="M133.4,190.8c-3,0-5.6-1.3-7.4-3.7c-2.1-2.8-8-15.5,6.1-62.4c0.8-2.6,3.6-4.1,6.2-3.3c2.6,0.8,4.1,3.6,3.3,6.2
		c-7,23.3-12.1,45-8.3,52.5c3.6-3.7,11.2-15.5,16.4-23.6c15.6-24.4,21.7-32.8,28.4-31.4c8.9,1.9,8,15.4,7,34.5
		c-0.1,2.6-0.8,10.1-0.9,12.8c0.3-0.8,14.2-39.2,24.9-42.5c2.4-0.7,4.9-0.3,7,1.1c6.8,4.6,8.9,18.5,9.6,29.9
		c5.4-9.7,11.8-20.1,17.3-21.1c2.7-0.5,5.2,0.5,7.1,2.5c3.8,4.2,4.5,10.1,5.1,15.8c1.1,9.8,2.2,13.9,9.4,15.1
		c3.3,0.5,9.6-1.4,15.9-5.6c-2.6-10.1-0.6-21.1,3-27.9c4.9-9.3,13.7-12,19.8-9.8c4.8,1.7,9.6,7.1,7.7,16.8c-1.4,6.9-9,15.7-18,23
		c0.1,0.1,0.2,0.1,0.3,0.2c0.9,0.7,2.7,1.7,6.1,1.6c6.1-0.2,17-4.2,35.8-20.3c2.1-1.8,5.2-1.6,7,0.5c1.8,2.1,1.1,4-1,5.8
		c-17.8,15.3-31.7,24.2-42.6,24.1c-4.5,0-8.3-1.3-11.6-3.9c-0.8-0.7-1.6-1.4-2.3-2.2c-8.1,5.1-16.3,8.3-21.8,7.5
		c-15.5-2.5-16.8-15.3-17.8-23.8c-0.3-3.2-0.7-6.5-1.6-8.7c-4.2,4-12.3,18.7-18.7,34c-1,2.3-3.4,3.5-5.9,2.9c-2.4-0.6-4-2.9-3.7-5.4
		c1.9-16.9,0.8-37.2-4-42.2c-4.3,3.3-12.2,21-16,29.7c-7,15.8-9.3,21.2-14.9,20.2c-2.1-0.4-4.7-1.9-5.2-7.2
		c-0.6-6.5-0.1-15,0.3-23.2c0.4-6.9,0.9-17.5,0.1-22.7c-4.4,4.8-12,16.8-17.4,25.2c-13.9,21.7-18.8,28.7-24.4,28.9
		C133.6,190.8,133.5,190.8,133.4,190.8z M299,139.1c-1.9,0-4.7,1.4-6.7,5.2c-2.3,4.3-3.5,11.8-3.2,17c6.1-5.6,11.3-12.7,12.1-16.6
		c0.5-2.3,0.4-4.9-1.3-5.5C299.6,139.2,299.3,139.1,299,139.1z"/>
</g>
<g>
	<path class="st0" d="M392.3,179.4c-10.6,0-18.2-8.5-22.8-15.8c-4.9,5.6-13,13.7-22.9,14.3c-4.5,0.3-8.8-1.5-11.5-4.7
		c-2.1-2.5-4.2-6.9-2.5-14.2c2.6-11.1,7.7-18.5,15.1-21.7c10.7-4.7,21.8,1.3,22.3,1.5c2.4,1.3,3.3,4.4,1.9,6.8
		c-1.3,2.4-4.4,3.3-6.8,2l0,0c-0.1,0-7.3-3.9-13.5-1.1c-4.3,2-7.5,7-9.3,14.9c-0.6,2.5-0.4,4.4,0.4,5.5c0.8,0.9,2.2,1.2,3.3,1.1
		c9.1-0.5,17.4-11.2,19.9-15.2c1-1.6,2.8-2.6,4.8-2.4c1.9,0.2,3.5,1.5,4.2,3.3c0.3,0.8,7.5,19.7,22.1,15.1c2.6-0.8,5.4,0.6,6.3,3.2
		c0.8,2.6-0.6,5.4-3.2,6.3C397.3,179,394.7,179.4,392.3,179.4z"/>
</g>
<g>
	<path class="st0" d="M576.4,174.6c-0.6,0-1.1-0.1-1.7-0.3c-3.1-0.9-4.8-4.2-3.8-7.3l1.1-3.5c1-3.1,4.2-4.8,7.3-3.8
		c3.1,0.9,4.8,4.2,3.8,7.3l-1.1,3.5C581.2,173,578.9,174.6,576.4,174.6z"/>
</g>
<g>
	<path class="st0" d="M434.7,183.8c-1.7,0-3.4-0.9-4.3-2.4c-2.9-4.9-1-18.1,7.6-64.3c3.9-21,8-42.8,9.6-57.6
		c0.3-2.7,2.8-4.7,5.5-4.4c2.7,0.3,4.7,2.8,4.4,5.5c-1.6,15.1-5.7,37.1-9.7,58.3c-4.4,23.4-9.8,52.5-8.6,57.7
		c1.1,2.3,0.3,5.1-1.9,6.5C436.5,183.6,435.6,183.8,434.7,183.8z"/>
</g>
<g>
	<path class="st0" d="M399.9,234.1c-20.7,0-26.8-6-28.2-11.2c-1.3-5.1,1.6-10.3,7.6-13.4c2.4-1.3,5.5-0.3,6.7,2.1
		c1.3,2.4,0.3,5.5-2.1,6.7c-1.7,0.9-2.4,1.9-2.5,2.2c0.1-0.1,2.7,3.6,18.4,3.6c1.4,0,2.9,0,4.5-0.1c35.7-1.4,101.1-22.2,131-57.5
		c11.3-13.4,16.2-27.4,14.4-41.7c-5-39.4-76.3-42.5-106.7-42c-3.2,0-7.2,0.1-7.9-4.3c-0.4-2.5,1.2-4.9,3.6-5.6
		c23.6-6.7,51.5-19,57-30.2c1-2.1,1.2-4.1,0.4-6c-3.1-7.6-33.4-8.6-88.5,13.3c-2.6,1-5.5-0.2-6.5-2.8c-1-2.6,0.2-5.5,2.8-6.5
		c15-6,90.5-34.3,101.4-7.8c1.9,4.6,1.7,9.5-0.6,14.2c-5.3,10.9-22.1,20-41.9,26.6c59.1,0.8,93,20.2,96.7,49.8
		c2.2,17.1-3.4,33.8-16.6,49.4c-30.1,35.5-95.2,59.4-138.2,61.1C403,234.1,401.4,234.1,399.9,234.1z"/>
</g>
<g>
	<path class="st0" d="M94.9,195.8c-1.4,0-2.8-0.6-3.8-1.8c-2.4-2.9-6.5-7.7,7.3-74.5c6.6-32,14.2-63.2,14.3-63.5
		c0.7-2.7,3.3-4.3,6-3.7c2.7,0.7,4.3,3.4,3.7,6c-14,57.1-26.6,121-23.4,129.5c1.5,2.1,1.2,5-0.8,6.7
		C97.2,195.4,96.1,195.8,94.9,195.8z"/>
</g>
<g>
	<path class="st0" d="M19.6,79c-1.9,0-3.7-1.1-4.5-2.9c-1.1-2.5,0-5.5,2.5-6.6C18.2,69.1,90.8,36,154.4,21
		c31.4-7.4,56.8-11.9,77.7-13.8c2.7-0.2,5.2,1.8,5.4,4.5c0.2,2.7-1.8,5.2-4.5,5.4c-20.4,1.8-45.4,6.3-76.3,13.6
		C94.1,45.5,22.4,78.2,21.6,78.5C21,78.8,20.3,79,19.6,79z"/>
</g>
</svg>
